# Copyright (C) 1994-2011 Synopsys Inc.
# swbtree vcurrent, Tue Jul 18 09:31:54 2017

# --- simulation flow
sprocess sprocess "" {}
sprocess width "55" {55}
sprocess thickness "300" {50 100 150 300}
sprocess metal_width "35" {35}
sprocess doping_width "38" {38}
sprocess contact_width "20" {20}
sdevice sdevice "" {}
sdevice Bias "-50" {-10 -20 -50 -75 -100}
sdevice1 sdevice "" {}
# --- variables
# --- scenarios and parameter specs
scenario default width ""
scenario default thickness ""
scenario default metal_width ""
scenario default doping_width ""
scenario default contact_width ""
scenario default Bias ""
# --- simulation tree
0 2 0 {} {default} 0
1 3 2 {55} {default} 0
2 4 3 {50} {default} 0
3 5 4 {35} {default} 0
4 6 5 {38} {default} 0
5 1 6 {20} {default} 0
6 8 1 {} {default} 0
7 9 8 {-10} {default} 0
8 99 9 {} {default} 0
7 17 8 {-20} {default} 0
8 100 17 {} {default} 0
7 20 8 {-50} {default} 0
8 101 20 {} {default} 0
7 23 8 {-75} {default} 0
8 102 23 {} {default} 0
7 26 8 {-100} {default} 0
8 103 26 {} {default} 0
2 54 3 {100} {default} 0
3 55 54 {35} {default} 0
4 56 55 {38} {default} 0
5 57 56 {20} {default} 0
6 58 57 {} {default} 0
7 59 58 {-10} {default} 0
8 104 59 {} {default} 0
7 61 58 {-20} {default} 0
8 105 61 {} {default} 0
7 63 58 {-50} {default} 0
8 106 63 {} {default} 0
7 65 58 {-75} {default} 0
8 107 65 {} {default} 0
7 67 58 {-100} {default} 0
8 108 67 {} {default} 0
2 69 3 {150} {default} 0
3 70 69 {35} {default} 0
4 71 70 {38} {default} 0
5 72 71 {20} {default} 0
6 73 72 {} {default} 0
7 74 73 {-10} {default} 0
8 109 74 {} {default} 0
7 76 73 {-20} {default} 0
8 110 76 {} {default} 0
7 78 73 {-50} {default} 0
8 111 78 {} {default} 0
7 80 73 {-75} {default} 0
8 112 80 {} {default} 0
7 82 73 {-100} {default} 0
8 113 82 {} {default} 0
2 84 3 {300} {default} 0
3 85 84 {35} {default} 0
4 86 85 {38} {default} 0
5 87 86 {20} {default} 0
6 88 87 {} {default} 0
7 89 88 {-10} {default} 0
8 114 89 {} {default} 0
7 91 88 {-20} {default} 0
8 115 91 {} {default} 0
7 93 88 {-50} {default} 0
8 116 93 {} {default} 0
7 95 88 {-75} {default} 0
8 117 95 {} {default} 0
7 97 88 {-100} {default} 0
8 118 97 {} {default} 0
